<?xml version='1.0' encoding='UTF-8'?>
<osm version='0.6' upload='true' generator='JOSM'>
  <node id='-100' action='modify' visible='true' lat='51.47287117738' lon='14.18717596445' />
  <node id='-98' action='modify' visible='true' lat='51.47237258684' lon='14.18685197316' />
  <node id='-96' action='modify' visible='true' lat='51.47192147641' lon='14.1865851568' />
  <node id='-94' action='modify' visible='true' lat='51.47144661851' lon='14.18628022382' />
  <node id='-92' action='modify' visible='true' lat='51.47119731614' lon='14.18612775733' />
  <node id='-90' action='modify' visible='true' lat='51.47081742419' lon='14.18593717422' />
  <node id='-88' action='modify' visible='true' lat='51.47062747702' lon='14.18591811591' />
  <node id='-86' action='modify' visible='true' lat='51.47036629838' lon='14.18599434915' />
  <node id='-84' action='modify' visible='true' lat='51.47018822118' lon='14.18608964071' />
  <node id='-82' action='modify' visible='true' lat='51.46997452762' lon='14.18628022382' />
  <node id='-80' action='modify' visible='true' lat='51.46980832082' lon='14.18652798187' />
  <node id='-78' action='modify' visible='true' lat='51.46968960131' lon='14.18687103147' />
  <node id='-76' action='modify' visible='true' lat='51.4695708815' lon='14.18746183912' />
  <node id='-74' action='modify' visible='true' lat='51.46953526549' lon='14.18828134651' />
  <node id='-72' action='modify' visible='true' lat='51.46946403339' lon='14.18932955363' />
  <node id='-70' action='modify' visible='true' lat='51.46936905709' lon='14.19022529426' />
  <node id='-68' action='modify' visible='true' lat='51.46926220852' lon='14.19098762671' />
  <node id='-66' action='modify' visible='true' lat='51.46909599913' lon='14.19150220111' />
  <node id='-64' action='modify' visible='true' lat='51.46885855609' lon='14.1919977172' />
  <node id='-62' action='modify' visible='true' lat='51.46859736733' lon='14.19228359187' />
  <node id='-60' action='modify' visible='true' lat='51.46820558137' lon='14.19255040823' />
  <node id='-58' action='modify' visible='true' lat='51.46789689916' lon='14.19260758317' />
  <node id='-56' action='modify' visible='true' lat='51.46736263655' lon='14.19260758317' />
  <node id='-54' action='modify' visible='true' lat='51.4667333859' lon='14.19256946654' />
  <node id='-52' action='modify' visible='true' lat='51.46622285541' lon='14.19260758317' />
  <node id='-50' action='modify' visible='true' lat='51.46591415979' lon='14.19272193303' />
  <node id='-48' action='modify' visible='true' lat='51.46553422385' lon='14.19291251615' />
  <node id='-46' action='modify' visible='true' lat='51.46524926981' lon='14.19316027419' />
  <node id='-44' action='modify' visible='true' lat='51.46498806038' lon='14.19354144042' />
  <node id='-42' action='modify' visible='true' lat='51.46488120155' lon='14.19378919846' />
  <node id='-40' action='modify' visible='true' lat='51.46475059597' lon='14.19420848131' />
  <node id='-38' action='modify' visible='true' lat='51.46470310294' lon='14.19455153092' />
  <node id='-36' action='modify' visible='true' lat='51.46470310294' lon='14.19516139688' />
  <node id='-34' action='modify' visible='true' lat='51.46472684946' lon='14.19556162141' />
  <node id='-32' action='modify' visible='true' lat='51.46484558188' lon='14.19601902088' />
  <node id='-30' action='modify' visible='true' lat='51.46499993357' lon='14.19653359529' />
  <node id='-28' action='modify' visible='true' lat='51.46518990416' lon='14.19701005307' />
  <node id='-26' action='modify' visible='true' lat='51.46547485857' lon='14.19758180241' />
  <node id='-24' action='modify' visible='true' lat='51.4656885732' lon='14.19802014357' />
  <node id='-22' action='modify' visible='true' lat='51.46579543015' lon='14.19851565966' />
  <node id='-20' action='modify' visible='true' lat='51.4657479382' lon='14.199087409' />
  <node id='-18' action='modify' visible='true' lat='51.46564108115' lon='14.19944951691' />
  <node id='-16' action='modify' visible='true' lat='51.46536800088' lon='14.19981162483' />
  <node id='-14' action='modify' visible='true' lat='51.46513053844' lon='14.20005938287' />
  <way id='-102' action='modify' visible='true'>
    <nd ref='-100' />
    <nd ref='-98' />
    <nd ref='-96' />
    <nd ref='-94' />
    <nd ref='-92' />
    <nd ref='-90' />
    <nd ref='-88' />
    <nd ref='-86' />
    <nd ref='-84' />
    <nd ref='-82' />
    <nd ref='-80' />
    <nd ref='-78' />
    <nd ref='-76' />
    <nd ref='-74' />
    <nd ref='-72' />
    <nd ref='-70' />
    <nd ref='-68' />
    <nd ref='-66' />
    <nd ref='-64' />
    <nd ref='-62' />
    <nd ref='-60' />
    <nd ref='-58' />
    <nd ref='-56' />
    <nd ref='-54' />
    <nd ref='-52' />
    <nd ref='-50' />
    <nd ref='-48' />
    <nd ref='-46' />
    <nd ref='-44' />
    <nd ref='-42' />
    <nd ref='-40' />
    <nd ref='-38' />
    <nd ref='-36' />
    <nd ref='-34' />
    <nd ref='-32' />
    <nd ref='-30' />
    <nd ref='-28' />
    <nd ref='-26' />
    <nd ref='-24' />
    <nd ref='-22' />
    <nd ref='-20' />
    <nd ref='-18' />
    <nd ref='-16' />
    <nd ref='-14' />
    <tag k='type' v='trajectory' />
  </way>
</osm>
