<?xml version='1.0' encoding='UTF-8'?>
<osm version='0.6' upload='true' generator='JOSM'>
  <node id='-360' action='modify' visible='true' lat='51.46473874414' lon='14.20027398062' />
  <node id='-358' action='modify' visible='true' lat='51.46498561292' lon='14.200211413' />
  <node id='-356' action='modify' visible='true' lat='51.4652572388' lon='14.2000245546' />
  <node id='-354' action='modify' visible='true' lat='51.46545088794' lon='14.19987949621' />
  <node id='-352' action='modify' visible='true' lat='51.46567842923' lon='14.19962839117' />
  <node id='-350' action='modify' visible='true' lat='51.46582689789' lon='14.1992232485' />
  <node id='-348' action='modify' visible='true' lat='51.46589560814' lon='14.1986056093' />
  <node id='-346' action='modify' visible='true' lat='51.46586520803' lon='14.1982884233' />
  <node id='-344' action='modify' visible='true' lat='51.46574377355' lon='14.19785525738' />
  <node id='-342' action='modify' visible='true' lat='51.46559993376' lon='14.19751941936' />
  <node id='-340' action='modify' visible='true' lat='51.46545458746' lon='14.19724369397' />
  <node id='-338' action='modify' visible='true' lat='51.46526239115' lon='14.19698962905' />
  <node id='-336' action='modify' visible='true' lat='51.46512816323' lon='14.19654075904' />
  <node id='-334' action='modify' visible='true' lat='51.46496043346' lon='14.19605998648' />
  <node id='-332' action='modify' visible='true' lat='51.46484971592' lon='14.19563346208' />
  <node id='-330' action='modify' visible='true' lat='51.46480494607' lon='14.19500466692' />
  <node id='-328' action='modify' visible='true' lat='51.46482619805' lon='14.19457825949' />
  <node id='-326' action='modify' visible='true' lat='51.46495607827' lon='14.19412655832' />
  <node id='-324' action='modify' visible='true' lat='51.46511905305' lon='14.1937603182' />
  <node id='-322' action='modify' visible='true' lat='51.46527041389' lon='14.19356942206' />
  <node id='-320' action='modify' visible='true' lat='51.46550463068' lon='14.19330625176' />
  <node id='-318' action='modify' visible='true' lat='51.46580590132' lon='14.19302725569' />
  <node id='-316' action='modify' visible='true' lat='51.46596560246' lon='14.19292471564' />
  <node id='-314' action='modify' visible='true' lat='51.46635493655' lon='14.19281442899' />
  <node id='-312' action='modify' visible='true' lat='51.46686243819' lon='14.1927765384' />
  <node id='-310' action='modify' visible='true' lat='51.46752504656' lon='14.19279587732' />
  <node id='-308' action='modify' visible='true' lat='51.46797615866' lon='14.19279587732' />
  <node id='-306' action='modify' visible='true' lat='51.46839986696' lon='14.19265159984' />
  <node id='-304' action='modify' visible='true' lat='51.46858006907' lon='14.1925403404' />
  <node id='-302' action='modify' visible='true' lat='51.46876087503' lon='14.19235375431' />
  <node id='-300' action='modify' visible='true' lat='51.46890394068' lon='14.19220760582' />
  <node id='-298' action='modify' visible='true' lat='51.46908035259' lon='14.19194619659' />
  <node id='-296' action='modify' visible='true' lat='51.46922122945' lon='14.19162958681' />
  <node id='-294' action='modify' visible='true' lat='51.4693133618' lon='14.19118588509' />
  <node id='-292' action='modify' visible='true' lat='51.46944852801' lon='14.1904165795' />
  <node id='-290' action='modify' visible='true' lat='51.46955934034' lon='14.18958643281' />
  <node id='-288' action='modify' visible='true' lat='51.46963352167' lon='14.18875284079' />
  <node id='-286' action='modify' visible='true' lat='51.46964622614' lon='14.18832455167' />
  <node id='-284' action='modify' visible='true' lat='51.46963438905' lon='14.18790650089' />
  <node id='-282' action='modify' visible='true' lat='51.46969172983' lon='14.18722532876' />
  <node id='-280' action='modify' visible='true' lat='51.46975722975' lon='14.18689235869' />
  <node id='-278' action='modify' visible='true' lat='51.46986541053' lon='14.18656239463' />
  <node id='-276' action='modify' visible='true' lat='51.46999754374' lon='14.18631764393' />
  <node id='-274' action='modify' visible='true' lat='51.47013787927' lon='14.18618890943' />
  <node id='-272' action='modify' visible='true' lat='51.47045590585' lon='14.1859952558' />
  <node id='-270' action='modify' visible='true' lat='51.47071006306' lon='14.1859952558' />
  <node id='-268' action='modify' visible='true' lat='51.47097681919' lon='14.18606973231' />
  <node id='-266' action='modify' visible='true' lat='51.47116818262' lon='14.18612394565' />
  <node id='-264' action='modify' visible='true' lat='51.47142622559' lon='14.18629341412' />
  <node id='-262' action='modify' visible='true' lat='51.47165396265' lon='14.18640886859' />
  <node id='-260' action='modify' visible='true' lat='51.4718863246' lon='14.18657673317' />
  <node id='-258' action='modify' visible='true' lat='51.47210573477' lon='14.1867528539' />
  <node id='-256' action='modify' visible='true' lat='51.47248721172' lon='14.18700967845' />
  <node id='-254' action='modify' visible='true' lat='51.47284060996' lon='14.18722488186' />
  <node id='-252' action='modify' visible='true' lat='51.47306009455' lon='14.18735701997' />
  <node id='-250' action='modify' visible='true' lat='51.47339576919' lon='14.1873345655' />
  <node id='-248' action='modify' visible='true' lat='51.46458111522' lon='14.20031290632' />
  <node id='-246' action='modify' visible='true' lat='51.47364279486' lon='14.18720932698' />
  <node id='-244' action='modify' visible='true' lat='51.46456062355' lon='14.20009910821' />
  <node id='-242' action='modify' visible='true' lat='51.4647179893' lon='14.20006024752' />
  <node id='-240' action='modify' visible='true' lat='51.46494798443' lon='14.20000195647' />
  <node id='-238' action='modify' visible='true' lat='51.46520218822' lon='14.19982708335' />
  <node id='-236' action='modify' visible='true' lat='51.46538376149' lon='14.19969107092' />
  <node id='-234' action='modify' visible='true' lat='51.46557743884' lon='14.1994773371' />
  <node id='-232' action='modify' visible='true' lat='51.46569848677' lon='14.1991470212' />
  <node id='-230' action='modify' visible='true' lat='51.46575901062' lon='14.19860297148' />
  <node id='-228' action='modify' visible='true' lat='51.46573480109' lon='14.19835037696' />
  <node id='-226' action='modify' visible='true' lat='51.46562585805' lon='14.19796177002' />
  <node id='-224' action='modify' visible='true' lat='51.4654927051' lon='14.19765088446' />
  <node id='-222' action='modify' visible='true' lat='51.46535955176' lon='14.19739828995' />
  <node id='-220' action='modify' visible='true' lat='51.46515376856' lon='14.19712626509' />
  <node id='-218' action='modify' visible='true' lat='51.46500850927' lon='14.19664050641' />
  <node id='-216' action='modify' visible='true' lat='51.46483903951' lon='14.19615474773' />
  <node id='-214' action='modify' visible='true' lat='51.4647179893' lon='14.1956884194' />
  <node id='-212' action='modify' visible='true' lat='51.46466956913' lon='14.19500835725' />
  <node id='-210' action='modify' visible='true' lat='51.46469377922' lon='14.19452259857' />
  <node id='-208' action='modify' visible='true' lat='51.46483903951' lon='14.19401740954' />
  <node id='-206' action='modify' visible='true' lat='51.46502061423' lon='14.19360937225' />
  <node id='-204' action='modify' visible='true' lat='51.46519008331' lon='14.19339563843' />
  <node id='-202' action='modify' visible='true' lat='51.4654321809' lon='14.19312361357' />
  <node id='-200' action='modify' visible='true' lat='51.46574690586' lon='14.19283215836' />
  <node id='-198' action='modify' visible='true' lat='51.46592847696' lon='14.19271557628' />
  <node id='-196' action='modify' visible='true' lat='51.46634003545' lon='14.1925989942' />
  <node id='-194' action='modify' visible='true' lat='51.46686053057' lon='14.1925601335' />
  <node id='-192' action='modify' visible='true' lat='51.46752627149' lon='14.19257956385' />
  <node id='-190' action='modify' visible='true' lat='51.46796202393' lon='14.19257956385' />
  <node id='-188' action='modify' visible='true' lat='51.46836146001' lon='14.19244355142' />
  <node id='-186' action='modify' visible='true' lat='51.46851881265' lon='14.19234639968' />
  <node id='-184' action='modify' visible='true' lat='51.46868826874' lon='14.19217152656' />
  <node id='-182' action='modify' visible='true' lat='51.46882141237' lon='14.19203551413' />
  <node id='-180' action='modify' visible='true' lat='51.46897876343' lon='14.19180234996' />
  <node id='-178' action='modify' visible='true' lat='51.46909980234' lon='14.1915303251' />
  <node id='-176' action='modify' visible='true' lat='51.46918452938' lon='14.19112228781' />
  <node id='-174' action='modify' visible='true' lat='51.46931767156' lon='14.19036450427' />
  <node id='-172' action='modify' visible='true' lat='51.46942660578' lon='14.18954842969' />
  <node id='-170' action='modify' visible='true' lat='51.46949922845' lon='14.1887323551' />
  <node id='-168' action='modify' visible='true' lat='51.46951133222' lon='14.18832431781' />
  <node id='-166' action='modify' visible='true' lat='51.46949922845' lon='14.18789685018' />
  <node id='-164' action='modify' visible='true' lat='51.46955974726' lon='14.18717792733' />
  <node id='-162' action='modify' visible='true' lat='51.46963236972' lon='14.18680875073' />
  <node id='-160' action='modify' visible='true' lat='51.46975340689' lon='14.18643957414' />
  <node id='-158' action='modify' visible='true' lat='51.46991075474' lon='14.18614811893' />
  <node id='-156' action='modify' visible='true' lat='51.47008020565' lon='14.18599267615' />
  <node id='-154' action='modify' visible='true' lat='51.47043120913' lon='14.18577894233' />
  <node id='-152' action='modify' visible='true' lat='51.47072169272' lon='14.18577894233' />
  <node id='-150' action='modify' visible='true' lat='51.47100007109' lon='14.18585666372' />
  <node id='-148' action='modify' visible='true' lat='51.47120582793' lon='14.18591495476' />
  <node id='-146' action='modify' visible='true' lat='51.4714721001' lon='14.18608982789' />
  <node id='-144' action='modify' visible='true' lat='51.47170206118' lon='14.18620640997' />
  <node id='-142' action='modify' visible='true' lat='51.47194412423' lon='14.1863812831' />
  <node id='-140' action='modify' visible='true' lat='51.47216197987' lon='14.18655615622' />
  <node id='-138' action='modify' visible='true' lat='51.47253717326' lon='14.18680875073' />
  <node id='-136' action='modify' visible='true' lat='51.47288815783' lon='14.18702248455' />
  <node id='-134' action='modify' visible='true' lat='51.47308180333' lon='14.18713906664' />
  <node id='-132' action='modify' visible='true' lat='51.47337227005' lon='14.18711963629' />
  <node id='-130' action='modify' visible='true' lat='51.47360222155' lon='14.18700305421' />
  <node id='-128' action='modify' visible='true' lat='51.47362386048' lon='14.18711306551' />
  <node id='-126' action='modify' visible='true' lat='51.46457155236' lon='14.200213133' />
  <node id='-124' action='modify' visible='true' lat='51.47338480283' lon='14.18723426433' />
  <node id='-122' action='modify' visible='true' lat='51.4730702254' lon='14.18725530753' />
  <node id='-120' action='modify' visible='true' lat='51.47286279917' lon='14.18713042895' />
  <node id='-118' action='modify' visible='true' lat='51.47251052731' lon='14.18691591136' />
  <node id='-116' action='modify' visible='true' lat='51.47213198272' lon='14.18666106085' />
  <node id='-114' action='modify' visible='true' lat='51.471913298' lon='14.18648552234' />
  <node id='-112' action='modify' visible='true' lat='51.47167640883' lon='14.18631438707' />
  <node id='-110' action='modify' visible='true' lat='51.47144763389' lon='14.18619840639' />
  <node id='-108' action='modify' visible='true' lat='51.47118575059' lon='14.18602641572' />
  <node id='-106' action='modify' visible='true' lat='51.47098767017' lon='14.18597029943' />
  <node id='-104' action='modify' visible='true' lat='51.47071549028' lon='14.18589430863' />
  <node id='-102' action='modify' visible='true' lat='51.47044438062' lon='14.18589430863' />
  <node id='-100' action='modify' visible='true' lat='51.47011096469' lon='14.1860973331' />
  <node id='-98' action='modify' visible='true' lat='51.46995704188' lon='14.18623853157' />
  <node id='-96' action='modify' visible='true' lat='51.46981314174' lon='14.1865050779' />
  <node id='-94' action='modify' visible='true' lat='51.46969896127' lon='14.1868533413' />
  <node id='-92' action='modify' visible='true' lat='51.46963013748' lon='14.1872032079' />
  <node id='-90' action='modify' visible='true' lat='51.4695713136' lon='14.18790199719' />
  <node id='-88' action='modify' visible='true' lat='51.46958327514' lon='14.18832444253' />
  <node id='-86' action='modify' visible='true' lat='51.469570851' lon='14.18874328072' />
  <node id='-84' action='modify' visible='true' lat='51.46949739705' lon='14.18956869787' />
  <node id='-82' action='modify' visible='true' lat='51.46938746118' lon='14.19039227751' />
  <node id='-80' action='modify' visible='true' lat='51.46925323952' lon='14.1911562061' />
  <node id='-78' action='modify' visible='true' lat='51.46916456301' lon='14.19158326428' />
  <node id='-76' action='modify' visible='true' lat='51.46903294393' lon='14.19187906758' />
  <node id='-74' action='modify' visible='true' lat='51.46886542715' lon='14.19212729566' />
  <node id='-72' action='modify' visible='true' lat='51.46872699181' lon='14.19226871395' />
  <node id='-70' action='modify' visible='true' lat='51.4685514825' lon='14.19244983394' />
  <node id='-68' action='modify' visible='true' lat='51.46838194356' lon='14.19255450973' />
  <node id='-66' action='modify' visible='true' lat='51.46796956239' lon='14.19269493015' />
  <node id='-64' action='modify' visible='true' lat='51.46752561819' lon='14.19269493015' />
  <node id='-62' action='modify' visible='true' lat='51.46686154796' lon='14.19267554856' />
  <node id='-60' action='modify' visible='true' lat='51.46634798265' lon='14.19271389188' />
  <node id='-58' action='modify' visible='true' lat='51.46594827708' lon='14.19282711642' />
  <node id='-56' action='modify' visible='true' lat='51.46577836988' lon='14.19293620947' />
  <node id='-54' action='modify' visible='true' lat='51.4654708205' lon='14.19322101986' />
  <node id='-52' action='modify' visible='true' lat='51.46523292598' lon='14.19348832232' />
  <node id='-50' action='modify' visible='true' lat='51.46507311456' lon='14.19368987614' />
  <node id='-48' action='modify' visible='true' lat='51.46490145974' lon='14.19407562178' />
  <node id='-46' action='modify' visible='true' lat='51.4647644021' lon='14.19455228417' />
  <node id='-44' action='modify' visible='true' lat='51.46474176966' lon='14.19500638909' />
  <node id='-42' action='modify' visible='true' lat='51.46478824301' lon='14.19565910906' />
  <node id='-40' action='modify' visible='true' lat='51.46490378249' lon='14.19610420878' />
  <node id='-38' action='modify' visible='true' lat='51.46507232427' lon='14.19658730822' />
  <node id='-36' action='modify' visible='true' lat='51.4652117002' lon='14.19705339309' />
  <node id='-34' action='modify' visible='true' lat='51.46541023711' lon='14.19731583939' />
  <node id='-32' action='modify' visible='true' lat='51.46554989331' lon='14.19758077028' />
  <node id='-30' action='modify' visible='true' lat='51.46568874587' lon='14.19790496371' />
  <node id='-28' action='modify' visible='true' lat='51.46580435097' lon='14.19831733526' />
  <node id='-26' action='modify' visible='true' lat='51.46583186212' lon='14.19860437831' />
  <node id='-24' action='modify' visible='true' lat='51.46576697222' lon='14.19918767545' />
  <node id='-22' action='modify' visible='true' lat='51.4656313' lon='14.19955789866' />
  <node id='-20' action='modify' visible='true' lat='51.465419562' lon='14.19979156364' />
  <node id='-18' action='modify' visible='true' lat='51.46523154831' lon='14.19993240054' />
  <node id='-16' action='modify' visible='true' lat='51.46496805281' lon='14.20011366576' />
  <node id='-14' action='modify' visible='true' lat='51.46472905846' lon='14.20017423764' />
  <way id='-366' action='modify' visible='true'>
    <nd ref='-246' />
    <nd ref='-250' />
    <nd ref='-252' />
    <nd ref='-254' />
    <nd ref='-256' />
    <nd ref='-258' />
    <nd ref='-260' />
    <nd ref='-262' />
    <nd ref='-264' />
    <nd ref='-266' />
    <nd ref='-268' />
    <nd ref='-270' />
    <nd ref='-272' />
    <nd ref='-274' />
    <nd ref='-276' />
    <nd ref='-278' />
    <nd ref='-280' />
    <nd ref='-282' />
    <nd ref='-284' />
    <nd ref='-286' />
    <nd ref='-288' />
    <nd ref='-290' />
    <nd ref='-292' />
    <nd ref='-294' />
    <nd ref='-296' />
    <nd ref='-298' />
    <nd ref='-300' />
    <nd ref='-302' />
    <nd ref='-304' />
    <nd ref='-306' />
    <nd ref='-308' />
    <nd ref='-310' />
    <nd ref='-312' />
    <nd ref='-314' />
    <nd ref='-316' />
    <nd ref='-318' />
    <nd ref='-320' />
    <nd ref='-322' />
    <nd ref='-324' />
    <nd ref='-326' />
    <nd ref='-328' />
    <nd ref='-330' />
    <nd ref='-332' />
    <nd ref='-334' />
    <nd ref='-336' />
    <nd ref='-338' />
    <nd ref='-340' />
    <nd ref='-342' />
    <nd ref='-344' />
    <nd ref='-346' />
    <nd ref='-348' />
    <nd ref='-350' />
    <nd ref='-352' />
    <nd ref='-354' />
    <nd ref='-356' />
    <nd ref='-358' />
    <nd ref='-360' />
    <nd ref='-248' />
  </way>
  <way id='-364' action='modify' visible='true'>
    <nd ref='-130' />
    <nd ref='-132' />
    <nd ref='-134' />
    <nd ref='-136' />
    <nd ref='-138' />
    <nd ref='-140' />
    <nd ref='-142' />
    <nd ref='-144' />
    <nd ref='-146' />
    <nd ref='-148' />
    <nd ref='-150' />
    <nd ref='-152' />
    <nd ref='-154' />
    <nd ref='-156' />
    <nd ref='-158' />
    <nd ref='-160' />
    <nd ref='-162' />
    <nd ref='-164' />
    <nd ref='-166' />
    <nd ref='-168' />
    <nd ref='-170' />
    <nd ref='-172' />
    <nd ref='-174' />
    <nd ref='-176' />
    <nd ref='-178' />
    <nd ref='-180' />
    <nd ref='-182' />
    <nd ref='-184' />
    <nd ref='-186' />
    <nd ref='-188' />
    <nd ref='-190' />
    <nd ref='-192' />
    <nd ref='-194' />
    <nd ref='-196' />
    <nd ref='-198' />
    <nd ref='-200' />
    <nd ref='-202' />
    <nd ref='-204' />
    <nd ref='-206' />
    <nd ref='-208' />
    <nd ref='-210' />
    <nd ref='-212' />
    <nd ref='-214' />
    <nd ref='-216' />
    <nd ref='-218' />
    <nd ref='-220' />
    <nd ref='-222' />
    <nd ref='-224' />
    <nd ref='-226' />
    <nd ref='-228' />
    <nd ref='-230' />
    <nd ref='-232' />
    <nd ref='-234' />
    <nd ref='-236' />
    <nd ref='-238' />
    <nd ref='-240' />
    <nd ref='-242' />
    <nd ref='-244' />
  </way>
  <way id='-362' action='modify' visible='true'>
    <nd ref='-128' />
    <nd ref='-124' />
    <nd ref='-122' />
    <nd ref='-120' />
    <nd ref='-118' />
    <nd ref='-116' />
    <nd ref='-114' />
    <nd ref='-112' />
    <nd ref='-110' />
    <nd ref='-108' />
    <nd ref='-106' />
    <nd ref='-104' />
    <nd ref='-102' />
    <nd ref='-100' />
    <nd ref='-98' />
    <nd ref='-96' />
    <nd ref='-94' />
    <nd ref='-92' />
    <nd ref='-90' />
    <nd ref='-88' />
    <nd ref='-86' />
    <nd ref='-84' />
    <nd ref='-82' />
    <nd ref='-80' />
    <nd ref='-78' />
    <nd ref='-76' />
    <nd ref='-74' />
    <nd ref='-72' />
    <nd ref='-70' />
    <nd ref='-68' />
    <nd ref='-66' />
    <nd ref='-64' />
    <nd ref='-62' />
    <nd ref='-60' />
    <nd ref='-58' />
    <nd ref='-56' />
    <nd ref='-54' />
    <nd ref='-52' />
    <nd ref='-50' />
    <nd ref='-48' />
    <nd ref='-46' />
    <nd ref='-44' />
    <nd ref='-42' />
    <nd ref='-40' />
    <nd ref='-38' />
    <nd ref='-36' />
    <nd ref='-34' />
    <nd ref='-32' />
    <nd ref='-30' />
    <nd ref='-28' />
    <nd ref='-26' />
    <nd ref='-24' />
    <nd ref='-22' />
    <nd ref='-20' />
    <nd ref='-18' />
    <nd ref='-16' />
    <nd ref='-14' />
    <nd ref='-126' />
    <tag k='type' v='trajectory' />
  </way>
  <relation id='-368' action='modify' visible='true'>
    <member type='way' ref='-366' role='left' />
    <member type='way' ref='-364' role='right' />
    <tag k='type' v='lanelet' />
  </relation>
</osm>
