<?xml version='1.0' encoding='UTF-8'?>
<osm version='0.6' upload='true' generator='JOSM'>
  <node id='-72' action='modify' visible='true' lat='51.27354954957' lon='1.05486530858' />
  <node id='-70' action='modify' visible='true' lat='51.27329798338' lon='1.05536513616' />
  <node id='-68' action='modify' visible='true' lat='51.27294766929' lon='1.05605286884' />
  <node id='-66' action='modify' visible='true' lat='51.27255268107' lon='1.05683455407' />
  <node id='-64' action='modify' visible='true' lat='51.27243747553' lon='1.0570562821' />
  <node id='-62' action='modify' visible='true' lat='51.27349705552' lon='1.05479780243' />
  <node id='-60' action='modify' visible='true' lat='51.27238564467' lon='1.05698747663' />
  <node id='-58' action='modify' visible='true' lat='51.27324561275' lon='1.05529738421' />
  <node id='-56' action='modify' visible='true' lat='51.27289533927' lon='1.05598503639' />
  <node id='-54' action='modify' visible='true' lat='51.27250055644' lon='1.05676631426' />
  <node id='-52' action='modify' visible='true' lat='51.27346905876' lon='1.05476179928' />
  <node id='-50' action='modify' visible='true' lat='51.27235800162' lon='1.0569507805' />
  <node id='-48' action='modify' visible='true' lat='51.27321768181' lon='1.05526124997' />
  <node id='-46' action='modify' visible='true' lat='51.27286742999' lon='1.0559488592' />
  <node id='-44' action='modify' visible='true' lat='51.27247275671' lon='1.05672991981' />
  <node id='-42' action='modify' visible='true' lat='51.27341656483' lon='1.05469429342' />
  <node id='-40' action='modify' visible='true' lat='51.27230617089' lon='1.05688197532' />
  <node id='-38' action='modify' visible='true' lat='51.27316531131' lon='1.05519349831' />
  <node id='-36' action='modify' visible='true' lat='51.2728151001' lon='1.05588102703' />
  <node id='-34' action='modify' visible='true' lat='51.27242063221' lon='1.05666168027' />
  <node id='-32' action='modify' visible='true' lat='51.27352155309' lon='1.05482930574' />
  <node id='-30' action='modify' visible='true' lat='51.27240983275' lon='1.05701958629' />
  <node id='-28' action='modify' visible='true' lat='51.27327005273' lon='1.05532900222' />
  <node id='-26' action='modify' visible='true' lat='51.27291976029' lon='1.05601669197' />
  <node id='-24' action='modify' visible='true' lat='51.27252488161' lon='1.05679815995' />
  <node id='-22' action='modify' visible='true' lat='51.27344106176' lon='1.05472579584' />
  <node id='-20' action='modify' visible='true' lat='51.27233035833' lon='1.05691408409' />
  <node id='-18' action='modify' visible='true' lat='51.27318975065' lon='1.05522511544' />
  <node id='-16' action='modify' visible='true' lat='51.27283952048' lon='1.05591268173' />
  <node id='-14' action='modify' visible='true' lat='51.27244495674' lon='1.05669352508' />
  <way id='-84' action='modify' visible='true'>
    <nd ref='-72' />
    <nd ref='-70' />
    <nd ref='-68' />
    <nd ref='-66' />
    <nd ref='-64' />
  </way>
  <way id='-82' action='modify' visible='true'>
    <nd ref='-62' />
    <nd ref='-58' />
    <nd ref='-56' />
    <nd ref='-54' />
    <nd ref='-60' />
  </way>
  <way id='-80' action='modify' visible='true'>
    <nd ref='-52' />
    <nd ref='-48' />
    <nd ref='-46' />
    <nd ref='-44' />
    <nd ref='-50' />
  </way>
  <way id='-78' action='modify' visible='true'>
    <nd ref='-42' />
    <nd ref='-38' />
    <nd ref='-36' />
    <nd ref='-34' />
    <nd ref='-40' />
  </way>
  <way id='-76' action='modify' visible='true'>
    <nd ref='-30' />
    <nd ref='-24' />
    <nd ref='-26' />
    <nd ref='-28' />
    <nd ref='-32' />
    <tag k='type' v='trajectory' />
    <tag k='velocity' v='30' />
  </way>
  <way id='-74' action='modify' visible='true'>
    <nd ref='-22' />
    <nd ref='-18' />
    <nd ref='-16' />
    <nd ref='-14' />
    <nd ref='-20' />
    <tag k='type' v='trajectory' />
    <tag k='velocity' v='30' />
  </way>
  <relation id='-88' action='modify' visible='true'>
    <member type='way' ref='-80' role='left' />
    <member type='way' ref='-78' role='right' />
    <tag k='type' v='lanelet' />
  </relation>
  <relation id='-86' action='modify' visible='true'>
    <member type='way' ref='-84' role='right' />
    <member type='way' ref='-82' role='left' />
    <tag k='type' v='lanelet' />
  </relation>
</osm>
