<?xml version='1.0' encoding='UTF-8'?>
<osm version='0.6' upload='true' generator='JOSM'>
  <node id='-1223' action='modify' visible='true' lat='50.81197889294' lon='-0.77748471342' />
  <node id='-1222' action='modify' visible='true' lat='50.81192722115' lon='-0.77756194658' />
  <node id='-1221' action='modify' visible='true' lat='50.81186901905' lon='-0.77761721326' />
  <node id='-1220' action='modify' visible='true' lat='50.81179156465' lon='-0.77766099175' />
  <node id='-1219' action='modify' visible='true' lat='50.81172413521' lon='-0.77769211669' />
  <node id='-1218' action='modify' visible='true' lat='50.81163219165' lon='-0.77770067609' />
  <node id='-1217' action='modify' visible='true' lat='50.81155093265' lon='-0.77771675113' />
  <node id='-1216' action='modify' visible='true' lat='50.81148395136' lon='-0.7777432522' />
  <node id='-1215' action='modify' visible='true' lat='50.81142586387' lon='-0.77780070774' />
  <node id='-1214' action='modify' visible='true' lat='50.81137489365' lon='-0.77785832561' />
  <node id='-1213' action='modify' visible='true' lat='50.81133425528' lon='-0.77793777215' />
  <node id='-1212' action='modify' visible='true' lat='50.81129816852' lon='-0.77803295631' />
  <node id='-1211' action='modify' visible='true' lat='50.81127594839' lon='-0.77816189573' />
  <node id='-1210' action='modify' visible='true' lat='50.81126096426' lon='-0.77828441639' />
  <node id='-1209' action='modify' visible='true' lat='50.81126096426' lon='-0.77836609343' />
  <node id='-1208' action='modify' visible='true' lat='50.81127291154' lon='-0.77845684991' />
  <node id='-1207' action='modify' visible='true' lat='50.81129998507' lon='-0.77856591304' />
  <node id='-1206' action='modify' visible='true' lat='50.81133501757' lon='-0.77866095652' />
  <node id='-1205' action='modify' visible='true' lat='50.8113681024' lon='-0.77873748225' />
  <node id='-1204' action='modify' visible='true' lat='50.81143607297' lon='-0.77887815022' />
  <node id='-1203' action='modify' visible='true' lat='50.81152325018' lon='-0.77906210505' />
  <node id='-1202' action='modify' visible='true' lat='50.81159220954' lon='-0.77921741233' />
  <node id='-1201' action='modify' visible='true' lat='50.8116429112' lon='-0.7793398845' />
  <node id='-1200' action='modify' visible='true' lat='50.81168283951' lon='-0.77944821116' />
  <node id='-1199' action='modify' visible='true' lat='50.81170020957' lon='-0.77959024216' />
  <node id='-1198' action='modify' visible='true' lat='50.81170020957' lon='-0.77971363451' />
  <node id='-1197' action='modify' visible='true' lat='50.81169438768' lon='-0.77982419932' />
  <node id='-1196' action='modify' visible='true' lat='50.81166558815' lon='-0.77992447126' />
  <node id='-1195' action='modify' visible='true' lat='50.81162986736' lon='-0.78003753468' />
  <node id='-1194' action='modify' visible='true' lat='50.81159325951' lon='-0.78011478205' />
  <node id='-1193' action='modify' visible='true' lat='50.81153413692' lon='-0.78017560074' />
  <node id='-1192' action='modify' visible='true' lat='50.81141375545' lon='-0.78026450772' />
  <node id='-1190' action='modify' visible='true' lat='50.8120146272' lon='-0.77741075892' />
  <node id='-1189' action='modify' visible='true' lat='50.81126643526' lon='-0.7803727547' />
  <node id='-1171' action='modify' visible='true' lat='50.81200232635' lon='-0.77751813036' />
  <node id='-1170' action='modify' visible='true' lat='50.81194632611' lon='-0.77760183324' />
  <node id='-1169' action='modify' visible='true' lat='50.81188252567' lon='-0.77766241592' />
  <node id='-1168' action='modify' visible='true' lat='50.81180126227' lon='-0.77770834734' />
  <node id='-1167' action='modify' visible='true' lat='50.81172952808' lon='-0.77774145932' />
  <node id='-1166' action='modify' visible='true' lat='50.81163506778' lon='-0.77775025302' />
  <node id='-1165' action='modify' visible='true' lat='50.81155671636' lon='-0.77776575287' />
  <node id='-1164' action='modify' visible='true' lat='50.81149639966' lon='-0.7777896171' />
  <node id='-1163' action='modify' visible='true' lat='50.81144334981' lon='-0.77784208982' />
  <node id='-1162' action='modify' visible='true' lat='50.81139664394' lon='-0.77789488721' />
  <node id='-1161' action='modify' visible='true' lat='50.81136008094' lon='-0.77796636658' />
  <node id='-1160' action='modify' visible='true' lat='50.81132736075' lon='-0.77805267097' />
  <node id='-1159' action='modify' visible='true' lat='50.8113065925' lon='-0.77817318544' />
  <node id='-1158' action='modify' visible='true' lat='50.81129240561' lon='-0.77828918747' />
  <node id='-1157' action='modify' visible='true' lat='50.81129240561' lon='-0.77836096528' />
  <node id='-1156' action='modify' visible='true' lat='50.81130314904' lon='-0.77844257688' />
  <node id='-1155' action='modify' visible='true' lat='50.81132836364' lon='-0.77854415155' />
  <node id='-1154' action='modify' visible='true' lat='50.81136160552' lon='-0.77863433712' />
  <node id='-1153' action='modify' visible='true' lat='50.81139358232' lon='-0.77870830001' />
  <node id='-1152' action='modify' visible='true' lat='50.8114611378' lon='-0.77884810901' />
  <node id='-1151' action='modify' visible='true' lat='50.81154869519' lon='-0.77903286618' />
  <node id='-1150' action='modify' visible='true' lat='50.81161822849' lon='-0.77918946615' />
  <node id='-1149' action='modify' visible='true' lat='50.81166965793' lon='-0.77931369635' />
  <node id='-1148' action='modify' visible='true' lat='50.81171269171' lon='-0.77943044832' />
  <node id='-1147' action='modify' visible='true' lat='50.81173165062' lon='-0.77958547108' />
  <node id='-1146' action='modify' visible='true' lat='50.81173165062' lon='-0.7797157042' />
  <node id='-1145' action='modify' visible='true' lat='50.81172526724' lon='-0.77983693247' />
  <node id='-1144' action='modify' visible='true' lat='50.8116939702' lon='-0.77994590011' />
  <node id='-1143' action='modify' visible='true' lat='50.81165672126' lon='-0.78006380049' />
  <node id='-1142' action='modify' visible='true' lat='50.81161506802' lon='-0.78015169434' />
  <node id='-1141' action='modify' visible='true' lat='50.81154942699' lon='-0.78021921851' />
  <node id='-1140' action='modify' visible='true' lat='50.81142702362' lon='-0.78030961878' />
  <node id='-1138' action='modify' visible='true' lat='50.81203960248' lon='-0.77744098482' />
  <node id='-1137' action='modify' visible='true' lat='50.81127967557' lon='-0.78041788626' />
  <node id='-1135' action='modify' visible='true' lat='50.81198965195' lon='-0.77738053306' />
  <node id='-1133' action='modify' visible='true' lat='50.81195545956' lon='-0.77745129652' />
  <node id='-1131' action='modify' visible='true' lat='50.81190811621' lon='-0.77752205999' />
  <node id='-1129' action='modify' visible='true' lat='50.81185551244' lon='-0.77757201067' />
  <node id='-1127' action='modify' visible='true' lat='50.81178186705' lon='-0.77761363623' />
  <node id='-1125' action='modify' visible='true' lat='50.81171874234' lon='-0.77764277413' />
  <node id='-1123' action='modify' visible='true' lat='50.81162931552' lon='-0.77765109925' />
  <node id='-1121' action='modify' visible='true' lat='50.81154514895' lon='-0.77766774947' />
  <node id='-1119' action='modify' visible='true' lat='50.81147150307' lon='-0.77769688737' />
  <node id='-1117' action='modify' visible='true' lat='50.81140837794' lon='-0.77775932572' />
  <node id='-1115' action='modify' visible='true' lat='50.81135314339' lon='-0.77782176407' />
  <node id='-1113' action='modify' visible='true' lat='50.81130842965' lon='-0.77790917776' />
  <node id='-1111' action='modify' visible='true' lat='50.81126897632' lon='-0.77801324168' />
  <node id='-1109' action='modify' visible='true' lat='50.8112453043' lon='-0.77815060605' />
  <node id='-1107' action='modify' visible='true' lat='50.81122952295' lon='-0.77827964531' />
  <node id='-1105' action='modify' visible='true' lat='50.81122952295' lon='-0.77837122156' />
  <node id='-1103' action='modify' visible='true' lat='50.81124267408' lon='-0.77847112292' />
  <node id='-1101' action='modify' visible='true' lat='50.81127160654' lon='-0.77858767451' />
  <node id='-1099' action='modify' visible='true' lat='50.81130842965' lon='-0.77868757587' />
  <node id='-1097' action='modify' visible='true' lat='50.81134262251' lon='-0.77876666445' />
  <node id='-1095' action='modify' visible='true' lat='50.81141100816' lon='-0.77890819138' />
  <node id='-1093' action='modify' visible='true' lat='50.81149780519' lon='-0.77909134387' />
  <node id='-1091' action='modify' visible='true' lat='50.81156619061' lon='-0.77924535847' />
  <node id='-1089' action='modify' visible='true' lat='50.81161616451' lon='-0.77936607262' />
  <node id='-1087' action='modify' visible='true' lat='50.81165298734' lon='-0.77946597398' />
  <node id='-1085' action='modify' visible='true' lat='50.81166876855' lon='-0.77959501324' />
  <node id='-1083' action='modify' visible='true' lat='50.81166876855' lon='-0.77971156482' />
  <node id='-1081' action='modify' visible='true' lat='50.81166350815' lon='-0.77981146619' />
  <node id='-1079' action='modify' visible='true' lat='50.81163720613' lon='-0.77990304243' />
  <node id='-1077' action='modify' visible='true' lat='50.81160301348' lon='-0.78001126891' />
  <node id='-1075' action='modify' visible='true' lat='50.81157145102' lon='-0.78007786982' />
  <node id='-1073' action='modify' visible='true' lat='50.81151884686' lon='-0.78013198305' />
  <node id='-1070' action='modify' visible='true' lat='50.8114004873' lon='-0.78021939674' />
  <node id='-1067' action='modify' visible='true' lat='50.81125319497' lon='-0.78032762322' />
  <way id='-1191' action='modify' visible='true'>
    <nd ref='-1189' />
    <nd ref='-1192' />
    <nd ref='-1193' />
    <nd ref='-1194' />
    <nd ref='-1195' />
    <nd ref='-1196' />
    <nd ref='-1197' />
    <nd ref='-1198' />
    <nd ref='-1199' />
    <nd ref='-1200' />
    <nd ref='-1201' />
    <nd ref='-1202' />
    <nd ref='-1203' />
    <nd ref='-1204' />
    <nd ref='-1205' />
    <nd ref='-1206' />
    <nd ref='-1207' />
    <nd ref='-1208' />
    <nd ref='-1209' />
    <nd ref='-1210' />
    <nd ref='-1211' />
    <nd ref='-1212' />
    <nd ref='-1213' />
    <nd ref='-1214' />
    <nd ref='-1215' />
    <nd ref='-1216' />
    <nd ref='-1217' />
    <nd ref='-1218' />
    <nd ref='-1219' />
    <nd ref='-1220' />
    <nd ref='-1221' />
    <nd ref='-1222' />
    <nd ref='-1223' />
    <nd ref='-1190' />
    <tag k='type' v='trajectory' />
    <tag k='velocity' v='30' />
  </way>
  <way id='-1139' action='modify' visible='true'>
    <nd ref='-1137' />
    <nd ref='-1140' />
    <nd ref='-1141' />
    <nd ref='-1142' />
    <nd ref='-1143' />
    <nd ref='-1144' />
    <nd ref='-1145' />
    <nd ref='-1146' />
    <nd ref='-1147' />
    <nd ref='-1148' />
    <nd ref='-1149' />
    <nd ref='-1150' />
    <nd ref='-1151' />
    <nd ref='-1152' />
    <nd ref='-1153' />
    <nd ref='-1154' />
    <nd ref='-1155' />
    <nd ref='-1156' />
    <nd ref='-1157' />
    <nd ref='-1158' />
    <nd ref='-1159' />
    <nd ref='-1160' />
    <nd ref='-1161' />
    <nd ref='-1162' />
    <nd ref='-1163' />
    <nd ref='-1164' />
    <nd ref='-1165' />
    <nd ref='-1166' />
    <nd ref='-1167' />
    <nd ref='-1168' />
    <nd ref='-1169' />
    <nd ref='-1170' />
    <nd ref='-1171' />
    <nd ref='-1138' />
  </way>
  <way id='-1071' action='modify' visible='true'>
    <nd ref='-1067' />
    <nd ref='-1070' />
    <nd ref='-1073' />
    <nd ref='-1075' />
    <nd ref='-1077' />
    <nd ref='-1079' />
    <nd ref='-1081' />
    <nd ref='-1083' />
    <nd ref='-1085' />
    <nd ref='-1087' />
    <nd ref='-1089' />
    <nd ref='-1091' />
    <nd ref='-1093' />
    <nd ref='-1095' />
    <nd ref='-1097' />
    <nd ref='-1099' />
    <nd ref='-1101' />
    <nd ref='-1103' />
    <nd ref='-1105' />
    <nd ref='-1107' />
    <nd ref='-1109' />
    <nd ref='-1111' />
    <nd ref='-1113' />
    <nd ref='-1115' />
    <nd ref='-1117' />
    <nd ref='-1119' />
    <nd ref='-1121' />
    <nd ref='-1123' />
    <nd ref='-1125' />
    <nd ref='-1127' />
    <nd ref='-1129' />
    <nd ref='-1131' />
    <nd ref='-1133' />
    <nd ref='-1135' />
  </way>
  <relation id='-1239' action='modify' visible='true'>
    <member type='way' ref='-1071' role='right' />
    <member type='way' ref='-1139' role='left' />
    <tag k='type' v='lanelet' />
  </relation>
</osm>
