<?xml version='1.0' encoding='UTF-8'?>
<osm version='0.6' upload='true' generator='JOSM'>
  <node id='-506' action='modify' visible='true' lat='51.39755298701' lon='10.34551468389' />
  <node id='-505' action='modify' visible='true' lat='51.3975628989' lon='10.34543789837' />
  <node id='-504' action='modify' visible='true' lat='51.3975541798' lon='10.34538199893' />
  <node id='-503' action='modify' visible='true' lat='51.39755777688' lon='10.34531281478' />
  <node id='-502' action='modify' visible='true' lat='51.39756861234' lon='10.34519992958' />
  <node id='-501' action='modify' visible='true' lat='51.39758091303' lon='10.34506630295' />
  <node id='-500' action='modify' visible='true' lat='51.3975986246' lon='10.34490907767' />
  <node id='-499' action='modify' visible='true' lat='51.39761498809' lon='10.34477794147' />
  <node id='-498' action='modify' visible='true' lat='51.397645181' lon='10.34455797373' />
  <node id='-497' action='modify' visible='true' lat='51.39767128559' lon='10.34435537905' />
  <node id='-496' action='modify' visible='true' lat='51.39770006181' lon='10.34414233792' />
  <node id='-494' action='modify' visible='true' lat='51.39753896532' lon='10.3455933806' />
  <node id='-493' action='modify' visible='true' lat='51.39773024165' lon='10.34392906117' />
  <node id='-480' action='modify' visible='true' lat='51.39752241509' lon='10.34550279227' />
  <node id='-478' action='modify' visible='true' lat='51.39753065531' lon='10.34543895693' />
  <node id='-473' action='modify' visible='true' lat='51.39752241509' lon='10.34538612769' />
  <node id='-468' action='modify' visible='true' lat='51.3975265352' lon='10.34530688381' />
  <node id='-463' action='modify' visible='true' lat='51.39753752216' lon='10.34519242044' />
  <node id='-461' action='modify' visible='true' lat='51.39754988248' lon='10.34505814611' />
  <node id='-459' action='modify' visible='true' lat='51.39756773627' lon='10.34489965836' />
  <node id='-457' action='modify' visible='true' lat='51.39758421669' lon='10.34476758525' />
  <node id='-455' action='modify' visible='true' lat='51.39761443078' lon='10.34454746338' />
  <node id='-453' action='modify' visible='true' lat='51.39764052474' lon='10.34434495126' />
  <node id='-451' action='modify' visible='true' lat='51.39766936543' lon='10.34413143305' />
  <node id='-450' action='modify' visible='true' lat='51.39769957945' lon='10.34391791485' />
  <node id='-218' action='modify' visible='true' lat='51.39752271161' lon='10.34574927528' />
  <node id='-217' action='modify' visible='true' lat='51.39753920123' lon='10.34562153343' />
  <node id='-216' action='modify' visible='true' lat='51.39755568531' lon='10.34549163276' />
  <node id='-215' action='modify' visible='true' lat='51.39757626864' lon='10.34533107791' />
  <node id='-214' action='modify' visible='true' lat='51.39760505295' lon='10.34511138664' />
  <node id='-213' action='modify' visible='true' lat='51.39763523222' lon='10.34489811438' />
  <node id='-212' action='modify' visible='true' lat='51.39767923019' lon='10.34458077633' />
  <node id='-211' action='modify' visible='true' lat='51.39770534296' lon='10.3443803208' />
  <node id='-210' action='modify' visible='true' lat='51.39773267874' lon='10.34417658746' />
  <node id='-208' action='modify' visible='true' lat='51.39750623117' lon='10.34587694596' />
  <node id='-207' action='modify' visible='true' lat='51.39776687689' lon='10.34396391459' />
  <node id='-205' action='modify' visible='true' lat='51.39747297376' lon='10.34585278604' />
  <node id='-203' action='modify' visible='true' lat='51.39748945421' lon='10.34572511536' />
  <node id='-178' action='modify' visible='true' lat='51.39750593465' lon='10.34559744468' />
  <node id='-176' action='modify' visible='true' lat='51.39752241509' lon='10.34546757278' />
  <node id='-174' action='modify' visible='true' lat='51.39754301564' lon='10.34530688381' />
  <node id='-172' action='modify' visible='true' lat='51.39757185638' lon='10.34508676195' />
  <node id='-170' action='modify' visible='true' lat='51.39760207047' lon='10.34487324374' />
  <node id='-168' action='modify' visible='true' lat='51.39764601821' lon='10.34455626825' />
  <node id='-166' action='modify' visible='true' lat='51.39767211216' lon='10.34435595736' />
  <node id='-164' action='modify' visible='true' lat='51.39769957945' lon='10.34415124402' />
  <node id='-163' action='modify' visible='true' lat='51.39773391355' lon='10.34393772581' />
  <way id='-495' action='modify' visible='true'>
    <nd ref='-493' />
    <nd ref='-496' />
    <nd ref='-497' />
    <nd ref='-498' />
    <nd ref='-499' />
    <nd ref='-500' />
    <nd ref='-501' />
    <nd ref='-502' />
    <nd ref='-503' />
    <nd ref='-504' />
    <nd ref='-505' />
    <nd ref='-506' />
    <nd ref='-494' />
    <nd ref='-217' />
  </way>
  <way id='-452' action='modify' visible='true'>
    <nd ref='-450' />
    <nd ref='-451' />
    <nd ref='-453' />
    <nd ref='-455' />
    <nd ref='-457' />
    <nd ref='-459' />
    <nd ref='-461' />
    <nd ref='-463' />
    <nd ref='-468' />
    <nd ref='-473' />
    <nd ref='-478' />
    <nd ref='-480' />
    <nd ref='-178' />
  </way>
  <way id='-283' action='modify' visible='true'>
    <nd ref='-217' />
    <nd ref='-218' />
    <nd ref='-208' />
  </way>
  <way id='-281' action='modify' visible='true'>
    <nd ref='-178' />
    <nd ref='-203' />
    <nd ref='-205' />
  </way>
  <way id='-209' action='modify' visible='true'>
    <nd ref='-207' />
    <nd ref='-210' />
    <nd ref='-211' />
    <nd ref='-212' />
    <nd ref='-213' />
    <nd ref='-214' />
    <nd ref='-215' />
    <nd ref='-216' />
    <nd ref='-217' />
  </way>
  <way id='-165' action='modify' visible='true'>
    <nd ref='-163' />
    <nd ref='-164' />
    <nd ref='-166' />
    <nd ref='-168' />
    <nd ref='-170' />
    <nd ref='-172' />
    <nd ref='-174' />
    <nd ref='-176' />
    <nd ref='-178' />
  </way>
  <relation id='-613' action='modify' visible='true'>
    <member type='way' ref='-283' role='left' />
    <member type='way' ref='-281' role='right' />
    <tag k='type' v='lanelet' />
  </relation>
  <relation id='-590' action='modify' visible='true'>
    <member type='way' ref='-209' role='left' />
    <member type='way' ref='-165' role='right' />
    <tag k='type' v='lanelet' />
  </relation>
  <relation id='-577' action='modify' visible='true'>
    <member type='way' ref='-452' role='right' />
    <member type='way' ref='-495' role='left' />
    <tag k='type' v='lanelet' />
  </relation>
</osm>
