<?xml version='1.0' encoding='UTF-8'?>
<osm version='0.6' upload='true' generator='JOSM'>
  <node id='-222' action='modify' visible='true' lat='48.34463098472' lon='11.83615791897' />
  <node id='-220' action='modify' visible='true' lat='48.34466695092' lon='11.83602852684' />
  <node id='-218' action='modify' visible='true' lat='48.34432391707' lon='11.83734976514' />
  <node id='-216' action='modify' visible='true' lat='48.34433238559' lon='11.83728605876' />
  <node id='-214' action='modify' visible='true' lat='48.34434727721' lon='11.83720888555' />
  <node id='-212' action='modify' visible='true' lat='48.34436578566' lon='11.83712534508' />
  <node id='-210' action='modify' visible='true' lat='48.34437898106' lon='11.83707571236' />
  <node id='-208' action='modify' visible='true' lat='48.34440082116' lon='11.83699988282' />
  <node id='-206' action='modify' visible='true' lat='48.34442979918' lon='11.83691524978' />
  <node id='-204' action='modify' visible='true' lat='48.34448662875' lon='11.83675225988' />
  <node id='-202' action='modify' visible='true' lat='48.34452748538' lon='11.83661862756' />
  <node id='-200' action='modify' visible='true' lat='48.34458710899' lon='11.83643129855' />
  <node id='-198' action='modify' visible='true' lat='48.34462383927' lon='11.83631551007' />
  <node id='-196' action='modify' visible='true' lat='48.34466482766' lon='11.8361921715' />
  <node id='-194' action='modify' visible='true' lat='48.34470485884' lon='11.83604981167' />
  <node id='-192' action='modify' visible='true' lat='48.34473141133' lon='11.83593528913' />
  <node id='-190' action='modify' visible='true' lat='48.34475988447' lon='11.83582819041' />
  <node id='-188' action='modify' visible='true' lat='48.34479386328' lon='11.83566405825' />
  <node id='-186' action='modify' visible='true' lat='48.34482193522' lon='11.83553207103' />
  <node id='-184' action='modify' visible='true' lat='48.34430794913' lon='11.83745654063' />
  <node id='-182' action='modify' visible='true' lat='48.34485007082' lon='11.83539978446' />
  <node id='-180' action='modify' visible='true' lat='48.34434149248' lon='11.83735538344' />
  <node id='-178' action='modify' visible='true' lat='48.34434985302' lon='11.83729248936' />
  <node id='-176' action='modify' visible='true' lat='48.34436443303' lon='11.83721693098' />
  <node id='-174' action='modify' visible='true' lat='48.34438266316' lon='11.83713464673' />
  <node id='-172' action='modify' visible='true' lat='48.34439556771' lon='11.83708610798' />
  <node id='-170' action='modify' visible='true' lat='48.34441706771' lon='11.83701145925' />
  <node id='-168' action='modify' visible='true' lat='48.3444457403' lon='11.83692771824' />
  <node id='-166' action='modify' visible='true' lat='48.34450275584' lon='11.83676419492' />
  <node id='-164' action='modify' visible='true' lat='48.3445437496' lon='11.83663011401' />
  <node id='-162' action='modify' visible='true' lat='48.34460331825' lon='11.83644295764' />
  <node id='-160' action='modify' visible='true' lat='48.34463998257' lon='11.83632737706' />
  <node id='-158' action='modify' visible='true' lat='48.34468115205' lon='11.83620349352' />
  <node id='-156' action='modify' visible='true' lat='48.34472163143' lon='11.83605953975' />
  <node id='-154' action='modify' visible='true' lat='48.34474824234' lon='11.83594476518' />
  <node id='-152' action='modify' visible='true' lat='48.34477682797' lon='11.8358372433' />
  <node id='-150' action='modify' visible='true' lat='48.34481099603' lon='11.83567219696' />
  <node id='-148' action='modify' visible='true' lat='48.34483904673' lon='11.83554030953' />
  <node id='-146' action='modify' visible='true' lat='48.34432547738' lon='11.83746247434' />
  <node id='-144' action='modify' visible='true' lat='48.34486718232' lon='11.83540802296' />
  <node id='-142' action='modify' visible='true' lat='48.34431073554' lon='11.83734555143' />
  <node id='-140' action='modify' visible='true' lat='48.34431928505' lon='11.83728123582' />
  <node id='-138' action='modify' visible='true' lat='48.34433441037' lon='11.8372028515' />
  <node id='-136' action='modify' visible='true' lat='48.34435312757' lon='11.83711836886' />
  <node id='-134' action='modify' visible='true' lat='48.3443665411' lon='11.83706791566' />
  <node id='-132' action='modify' visible='true' lat='48.34438863627' lon='11.83699120053' />
  <node id='-130' action='modify' visible='true' lat='48.34441784337' lon='11.83690589846' />
  <node id='-128' action='modify' visible='true' lat='48.34447453346' lon='11.83674330864' />
  <node id='-126' action='modify' visible='true' lat='48.34451528724' lon='11.83661001274' />
  <node id='-124' action='modify' visible='true' lat='48.34457495208' lon='11.83642255425' />
  <node id='-122' action='modify' visible='true' lat='48.34461173183' lon='11.83630660985' />
  <node id='-120' action='modify' visible='true' lat='48.3446525844' lon='11.83618368001' />
  <node id='-118' action='modify' visible='true' lat='48.34469227943' lon='11.83604251563' />
  <node id='-116' action='modify' visible='true' lat='48.34471878809' lon='11.83592818211' />
  <node id='-114' action='modify' visible='true' lat='48.34474717687' lon='11.83582140075' />
  <node id='-112' action='modify' visible='true' lat='48.34478101375' lon='11.83565795423' />
  <node id='-110' action='modify' visible='true' lat='48.34480910161' lon='11.83552589217' />
  <node id='-108' action='modify' visible='true' lat='48.34429480298' lon='11.83745209036' />
  <node id='-106' action='modify' visible='true' lat='48.34483723721' lon='11.8353936056' />
  <node id='-104' action='modify' visible='true' lat='48.34430194784' lon='11.83734274228' />
  <node id='-102' action='modify' visible='true' lat='48.34431055134' lon='11.83727802052' />
  <node id='-100' action='modify' visible='true' lat='48.34432583247' lon='11.83719882879' />
  <node id='-98' action='modify' visible='true' lat='48.34434468882' lon='11.83711371804' />
  <node id='-96' action='modify' visible='true' lat='48.34435824778' lon='11.83706271786' />
  <node id='-94' action='modify' visible='true' lat='48.344380513' lon='11.83698541232' />
  <node id='-92' action='modify' visible='true' lat='48.34440987282' lon='11.83689966424' />
  <node id='-90' action='modify' visible='true' lat='48.34446646993' lon='11.83673734113' />
  <node id='-88' action='modify' visible='true' lat='48.34450715513' lon='11.83660426953' />
  <node id='-86' action='modify' visible='true' lat='48.34456684745' lon='11.83641672472' />
  <node id='-84' action='modify' visible='true' lat='48.34460366019' lon='11.83630067636' />
  <node id='-82' action='modify' visible='true' lat='48.34464442221' lon='11.83617801901' />
  <node id='-80' action='modify' visible='true' lat='48.34468389314' lon='11.83603765159' />
  <node id='-78' action='modify' visible='true' lat='48.34471037259' lon='11.83592344409' />
  <node id='-76' action='modify' visible='true' lat='48.34473870512' lon='11.83581687431' />
  <node id='-74' action='modify' visible='true' lat='48.34477244739' lon='11.83565388488' />
  <node id='-72' action='modify' visible='true' lat='48.34480054586' lon='11.83552177293' />
  <node id='-70' action='modify' visible='true' lat='48.34428603886' lon='11.83744912351' />
  <node id='-68' action='modify' visible='true' lat='48.34482868147' lon='11.83538948636' />
  <node id='-66' action='modify' visible='true' lat='48.34425536444' lon='11.83743873953' />
  <node id='-64' action='modify' visible='true' lat='48.34427119089' lon='11.83733291027' />
  <node id='-62' action='modify' visible='true' lat='48.34427998336' lon='11.83726676699' />
  <node id='-60' action='modify' visible='true' lat='48.3442958098' lon='11.83718474931' />
  <node id='-58' action='modify' visible='true' lat='48.34431515322' lon='11.83709744018' />
  <node id='-56' action='modify' visible='true' lat='48.34432922116' lon='11.83704452555' />
  <node id='-54' action='modify' visible='true' lat='48.34435208155' lon='11.8369651536' />
  <node id='-52' action='modify' visible='true' lat='48.34438197589' lon='11.83687784447' />
  <node id='-50' action='modify' visible='true' lat='48.34443824755' lon='11.83671645485' />
  <node id='-48' action='modify' visible='true' lat='48.34447869276' lon='11.83658416828' />
  <node id='-46' action='modify' visible='true' lat='48.34453848128' lon='11.83639632134' />
  <node id='-44' action='modify' visible='true' lat='48.34457540944' lon='11.83627990916' />
  <node id='-42' action='modify' visible='true' lat='48.34461585455' lon='11.83615820552' />
  <node id='-40' action='modify' visible='true' lat='48.34465454114' lon='11.83602062748' />
  <node id='-38' action='modify' visible='true' lat='48.34468091834' lon='11.83590686103' />
  <node id='-36' action='modify' visible='true' lat='48.34470905401' lon='11.83580103177' />
  <node id='-34' action='modify' visible='true' lat='48.3447424651' lon='11.83563964215' />
  <node id='-32' action='modify' visible='true' lat='48.34477060074' lon='11.83550735558' />
  <node id='-30' action='modify' visible='true' lat='48.34479873636' lon='11.83537506901' />
  <node id='-28' action='modify' visible='true' lat='48.34481584787' lon='11.8353833075' />
  <node id='-26' action='modify' visible='true' lat='48.34478771226' lon='11.83551559407' />
  <node id='-24' action='modify' visible='true' lat='48.34475959785' lon='11.83564778086' />
  <node id='-22' action='modify' visible='true' lat='48.34472599752' lon='11.83581008466' />
  <node id='-18' action='modify' visible='true' lat='48.3445875169' lon='11.83628880938' />
  <node id='-16' action='modify' visible='true' lat='48.34455063821' lon='11.83640506564' />
  <node id='-14' action='modify' visible='true' lat='48.34449089091' lon='11.8365927831' />
  <way id='-359' action='modify' visible='true'>
    <nd ref='-84' />
    <nd ref='-86' />
    <nd ref='-88' />
    <nd ref='-90' />
    <nd ref='-92' />
    <nd ref='-94' />
    <nd ref='-96' />
    <nd ref='-98' />
    <nd ref='-100' />
    <nd ref='-102' />
    <nd ref='-104' />
    <nd ref='-70' />
  </way>
  <way id='-344' action='modify' visible='true'>
    <nd ref='-44' />
    <nd ref='-46' />
    <nd ref='-48' />
    <nd ref='-50' />
    <nd ref='-52' />
    <nd ref='-54' />
    <nd ref='-56' />
    <nd ref='-58' />
    <nd ref='-60' />
    <nd ref='-62' />
    <nd ref='-64' />
    <nd ref='-66' />
  </way>
  <way id='-246' action='modify' visible='true'>
    <nd ref='-220' />
    <nd ref='-222' />
    <tag k='type' v='trajectory' />
    <tag k='velocity' v='20' />
  </way>
  <way id='-242' action='modify' visible='true'>
    <nd ref='-80' />
    <nd ref='-82' />
    <nd ref='-84' />
  </way>
  <way id='-240' action='modify' visible='true'>
    <nd ref='-40' />
    <nd ref='-42' />
    <nd ref='-44' />
  </way>
  <way id='-238' action='modify' visible='true'>
    <nd ref='-184' />
    <nd ref='-218' />
    <nd ref='-216' />
    <nd ref='-214' />
    <nd ref='-212' />
    <nd ref='-210' />
    <nd ref='-208' />
    <nd ref='-206' />
    <nd ref='-204' />
    <nd ref='-202' />
    <nd ref='-200' />
    <nd ref='-198' />
    <nd ref='-196' />
    <nd ref='-194' />
    <nd ref='-192' />
    <nd ref='-190' />
    <nd ref='-188' />
    <nd ref='-186' />
    <nd ref='-182' />
    <tag k='type' v='trajectory' />
  </way>
  <way id='-236' action='modify' visible='true'>
    <nd ref='-144' />
    <nd ref='-148' />
    <nd ref='-150' />
    <nd ref='-152' />
    <nd ref='-154' />
    <nd ref='-156' />
    <nd ref='-158' />
    <nd ref='-160' />
    <nd ref='-162' />
    <nd ref='-164' />
    <nd ref='-166' />
    <nd ref='-168' />
    <nd ref='-170' />
    <nd ref='-172' />
    <nd ref='-174' />
    <nd ref='-176' />
    <nd ref='-178' />
    <nd ref='-180' />
    <nd ref='-146' />
  </way>
  <way id='-234' action='modify' visible='true'>
    <nd ref='-106' />
    <nd ref='-110' />
    <nd ref='-112' />
    <nd ref='-114' />
    <nd ref='-116' />
    <nd ref='-118' />
    <nd ref='-120' />
    <nd ref='-122' />
    <nd ref='-124' />
    <nd ref='-126' />
    <nd ref='-128' />
    <nd ref='-130' />
    <nd ref='-132' />
    <nd ref='-134' />
    <nd ref='-136' />
    <nd ref='-138' />
    <nd ref='-140' />
    <nd ref='-142' />
    <nd ref='-108' />
  </way>
  <way id='-232' action='modify' visible='true'>
    <nd ref='-68' />
    <nd ref='-72' />
    <nd ref='-74' />
    <nd ref='-76' />
    <nd ref='-78' />
    <nd ref='-80' />
  </way>
  <way id='-230' action='modify' visible='true'>
    <nd ref='-30' />
    <nd ref='-32' />
    <nd ref='-34' />
    <nd ref='-36' />
    <nd ref='-38' />
    <nd ref='-40' />
  </way>
  <way id='-228' action='modify' visible='true'>
    <nd ref='-28' />
    <nd ref='-26' />
    <nd ref='-24' />
    <nd ref='-22' />
    <tag k='type' v='trajectory' />
    <tag k='velocity' v='30' />
  </way>
  <way id='-224' action='modify' visible='true'>
    <nd ref='-18' />
    <nd ref='-16' />
    <nd ref='-14' />
    <tag k='type' v='trajectory' />
    <tag k='velocity' v='10' />
  </way>
  <relation id='-453' action='modify' visible='true'>
    <member type='way' ref='-344' role='right' />
    <member type='way' ref='-359' role='left' />
    <tag k='type' v='lanelet' />
  </relation>
  <relation id='-252' action='modify' visible='true'>
    <member type='way' ref='-230' role='right' />
    <member type='way' ref='-232' role='left' />
    <tag k='type' v='lanelet' />
  </relation>
  <relation id='-250' action='modify' visible='true'>
    <member type='way' ref='-236' role='right' />
    <member type='way' ref='-234' role='left' />
    <tag k='type' v='lanelet' />
  </relation>
  <relation id='-248' action='modify' visible='true'>
    <member type='way' ref='-240' role='right' />
    <member type='way' ref='-242' role='left' />
    <tag k='type' v='lanelet' />
  </relation>
</osm>
