<?xml version='1.0' encoding='UTF-8'?>
<osm version='0.6' upload='true' generator='JOSM'>
  <node id='-240' action='modify' visible='true' lat='48.34479873636' lon='11.83537506901' />
  <node id='-238' action='modify' visible='true' lat='48.34477060074' lon='11.83550735558' />
  <node id='-236' action='modify' visible='true' lat='48.3447424651' lon='11.83563964215' />
  <node id='-234' action='modify' visible='true' lat='48.34470905401' lon='11.83580103177' />
  <node id='-232' action='modify' visible='true' lat='48.34468091834' lon='11.83590686103' />
  <node id='-230' action='modify' visible='true' lat='48.34465454114' lon='11.83602062748' />
  <node id='-228' action='modify' visible='true' lat='48.34461585455' lon='11.83615820552' />
  <node id='-226' action='modify' visible='true' lat='48.34457540944' lon='11.83627990916' />
  <node id='-224' action='modify' visible='true' lat='48.34453848128' lon='11.83639632134' />
  <node id='-222' action='modify' visible='true' lat='48.34447869276' lon='11.83658416828' />
  <node id='-220' action='modify' visible='true' lat='48.34443824755' lon='11.83671645485' />
  <node id='-218' action='modify' visible='true' lat='48.34438197589' lon='11.83687784447' />
  <node id='-216' action='modify' visible='true' lat='48.34435208155' lon='11.8369651536' />
  <node id='-214' action='modify' visible='true' lat='48.34432922116' lon='11.83704452555' />
  <node id='-212' action='modify' visible='true' lat='48.34431515322' lon='11.83709744018' />
  <node id='-210' action='modify' visible='true' lat='48.3442958098' lon='11.83718474931' />
  <node id='-208' action='modify' visible='true' lat='48.34427998336' lon='11.83726676699' />
  <node id='-206' action='modify' visible='true' lat='48.34427119089' lon='11.83733291027' />
  <node id='-204' action='modify' visible='true' lat='48.34425536444' lon='11.83743873953' />
  <node id='-202' action='modify' visible='true' lat='48.34482868147' lon='11.83538948636' />
  <node id='-200' action='modify' visible='true' lat='48.34428603886' lon='11.83744912351' />
  <node id='-198' action='modify' visible='true' lat='48.34480054586' lon='11.83552177293' />
  <node id='-196' action='modify' visible='true' lat='48.34477244739' lon='11.83565388488' />
  <node id='-194' action='modify' visible='true' lat='48.34473870512' lon='11.83581687431' />
  <node id='-192' action='modify' visible='true' lat='48.34471037259' lon='11.83592344409' />
  <node id='-190' action='modify' visible='true' lat='48.34468389314' lon='11.83603765159' />
  <node id='-188' action='modify' visible='true' lat='48.34464442221' lon='11.83617801901' />
  <node id='-186' action='modify' visible='true' lat='48.34460366019' lon='11.83630067636' />
  <node id='-184' action='modify' visible='true' lat='48.34456684745' lon='11.83641672472' />
  <node id='-182' action='modify' visible='true' lat='48.34450715513' lon='11.83660426953' />
  <node id='-180' action='modify' visible='true' lat='48.34446646993' lon='11.83673734113' />
  <node id='-178' action='modify' visible='true' lat='48.34440987282' lon='11.83689966424' />
  <node id='-176' action='modify' visible='true' lat='48.344380513' lon='11.83698541232' />
  <node id='-174' action='modify' visible='true' lat='48.34435824778' lon='11.83706271786' />
  <node id='-172' action='modify' visible='true' lat='48.34434468882' lon='11.83711371804' />
  <node id='-170' action='modify' visible='true' lat='48.34432583247' lon='11.83719882879' />
  <node id='-168' action='modify' visible='true' lat='48.34431055134' lon='11.83727802052' />
  <node id='-166' action='modify' visible='true' lat='48.34430194784' lon='11.83734274228' />
  <node id='-50' action='modify' visible='true' lat='48.34481584787' lon='11.8353833075' />
  <node id='-48' action='modify' visible='true' lat='48.34427289269' lon='11.83744467324' />
  <node id='-46' action='modify' visible='true' lat='48.34478771226' lon='11.83551559407' />
  <node id='-44' action='modify' visible='true' lat='48.34475959785' lon='11.83564778086' />
  <node id='-42' action='modify' visible='true' lat='48.34472599752' lon='11.83581008466' />
  <node id='-40' action='modify' visible='true' lat='48.34469774936' lon='11.83591633707' />
  <node id='-38' action='modify' visible='true' lat='48.34467131373' lon='11.83603035555' />
  <node id='-36' action='modify' visible='true' lat='48.34463217894' lon='11.83616952753' />
  <node id='-34' action='modify' visible='true' lat='48.34459155274' lon='11.83629177614' />
  <node id='-32' action='modify' visible='true' lat='48.34455469054' lon='11.83640798041' />
  <node id='-30' action='modify' visible='true' lat='48.34449495699' lon='11.83659565472' />
  <node id='-28' action='modify' visible='true' lat='48.34445437464' lon='11.83672838988' />
  <node id='-26' action='modify' visible='true' lat='48.34439791701' lon='11.83689031292' />
  <node id='-24' action='modify' visible='true' lat='48.34436832811' lon='11.83697673002' />
  <node id='-22' action='modify' visible='true' lat='48.34434580781' lon='11.83705492116' />
  <node id='-20' action='modify' visible='true' lat='48.34433203072' lon='11.83710674182' />
  <node id='-18' action='modify' visible='true' lat='48.34431296563' lon='11.83719279473' />
  <node id='-16' action='modify' visible='true' lat='48.34429745079' lon='11.83727319759' />
  <node id='-14' action='modify' visible='true' lat='48.34428876631' lon='11.83733852857' />
  <way id='-252' action='modify' visible='true'>
    <nd ref='-240' />
    <nd ref='-238' />
    <nd ref='-236' />
    <nd ref='-234' />
    <nd ref='-232' />
    <nd ref='-230' />
    <nd ref='-228' />
    <nd ref='-226' />
    <nd ref='-224' />
    <nd ref='-222' />
    <nd ref='-220' />
    <nd ref='-218' />
    <nd ref='-216' />
    <nd ref='-214' />
    <nd ref='-212' />
    <nd ref='-210' />
    <nd ref='-208' />
    <nd ref='-206' />
    <nd ref='-204' />
  </way>
  <way id='-250' action='modify' visible='true'>
    <nd ref='-202' />
    <nd ref='-198' />
    <nd ref='-196' />
    <nd ref='-194' />
    <nd ref='-192' />
    <nd ref='-190' />
    <nd ref='-188' />
    <nd ref='-186' />
    <nd ref='-184' />
    <nd ref='-182' />
    <nd ref='-180' />
    <nd ref='-178' />
    <nd ref='-176' />
    <nd ref='-174' />
    <nd ref='-172' />
    <nd ref='-170' />
    <nd ref='-168' />
    <nd ref='-166' />
    <nd ref='-200' />
  </way>
  <way id='-242' action='modify' visible='true'>
    <nd ref='-50' />
    <nd ref='-46' />
    <nd ref='-44' />
    <nd ref='-42' />
    <nd ref='-40' />
    <nd ref='-38' />
    <nd ref='-36' />
    <nd ref='-34' />
    <nd ref='-32' />
    <nd ref='-30' />
    <nd ref='-28' />
    <nd ref='-26' />
    <nd ref='-24' />
    <nd ref='-22' />
    <nd ref='-20' />
    <nd ref='-18' />
    <nd ref='-16' />
    <nd ref='-14' />
    <nd ref='-48' />
    <tag k='type' v='trajectory' />
  </way>
  <relation id='-256' action='modify' visible='true'>
    <member type='way' ref='-252' role='right' />
    <member type='way' ref='-250' role='left' />
    <tag k='type' v='lanelet' />
  </relation>
</osm>
