<?xml version='1.0' encoding='UTF-8'?>
<osm version='0.6' upload='true' generator='JOSM'>
  <node id='-1904' action='modify' visible='true' lat='48.35057522645' lon='11.73875861946' />
  <node id='-1903' action='modify' visible='true' lat='48.3505339276' lon='11.73829790958' />
  <node id='-1902' action='modify' visible='true' lat='48.35048647865' lon='11.73748016636' />
  <node id='-1901' action='modify' visible='true' lat='48.35049452167' lon='11.73684302023' />
  <node id='-1900' action='modify' visible='true' lat='48.35047736173' lon='11.73651595367' />
  <node id='-1899' action='modify' visible='true' lat='48.35047159938' lon='11.73620380621' />
  <node id='-1898' action='modify' visible='true' lat='48.3504657836' lon='11.73595002252' />
  <node id='-1897' action='modify' visible='true' lat='48.35047158723' lon='11.73569676876' />
  <node id='-1896' action='modify' visible='true' lat='48.35047729296' lon='11.73530183316' />
  <node id='-1894' action='modify' visible='true' lat='48.35058849763' lon='11.73890699966' />
  <node id='-1893' action='modify' visible='true' lat='48.35048874105' lon='11.73493146872' />
  <node id='-1879' action='modify' visible='true' lat='48.35061528938' lon='11.73875050622' />
  <node id='-1878' action='modify' visible='true' lat='48.35057411594' lon='11.73829119491' />
  <node id='-1877' action='modify' visible='true' lat='48.35052693632' lon='11.73747809275' />
  <node id='-1876' action='modify' visible='true' lat='48.35053497614' lon='11.73684119985' />
  <node id='-1875' action='modify' visible='true' lat='48.35051774171' lon='11.73651271343' />
  <node id='-1874' action='modify' visible='true' lat='48.35051200424' lon='11.73620191356' />
  <node id='-1873' action='modify' visible='true' lat='48.35050623184' lon='11.73595002252' />
  <node id='-1872' action='modify' visible='true' lat='48.3505119963' lon='11.73569847797' />
  <node id='-1871' action='modify' visible='true' lat='48.35051769674' lon='11.73530390755' />
  <node id='-1869' action='modify' visible='true' lat='48.35062856055' lon='11.73889888643' />
  <node id='-1868' action='modify' visible='true' lat='48.35052912159' lon='11.73493429485' />
  <node id='-1859' action='modify' visible='true' lat='48.35066946495' lon='11.73872454403' />
  <node id='-1858' action='modify' visible='true' lat='48.35063233433' lon='11.73827757098' />
  <node id='-1857' action='modify' visible='true' lat='48.3505781322' lon='11.73746626728' />
  <node id='-1856' action='modify' visible='true' lat='48.35054393029' lon='11.73684011429' />
  <node id='-1855' action='modify' visible='true' lat='48.35052671504' lon='11.73651199337' />
  <node id='-1854' action='modify' visible='true' lat='48.3505209831' lon='11.73620149298' />
  <node id='-1853' action='modify' visible='true' lat='48.35051522033' lon='11.73595002252' />
  <node id='-1852' action='modify' visible='true' lat='48.35052097609' lon='11.73569885779' />
  <node id='-1851' action='modify' visible='true' lat='48.35052667536' lon='11.73530436852' />
  <node id='-1849' action='modify' visible='true' lat='48.35068373606' lon='11.73888345319' />
  <node id='-1848' action='modify' visible='true' lat='48.35053809504' lon='11.73493492288' />
  <node id='-1846' action='modify' visible='true' lat='48.35069618957' lon='11.7387193137' />
  <node id='-1845' action='modify' visible='true' lat='48.35065911602' lon='11.73827302733' />
  <node id='-1844' action='modify' visible='true' lat='48.35060497099' lon='11.73746257798' />
  <node id='-1843' action='modify' visible='true' lat='48.35057079273' lon='11.73683685762' />
  <node id='-1842' action='modify' visible='true' lat='48.35055363502' lon='11.73650983321' />
  <node id='-1841' action='modify' visible='true' lat='48.35054791967' lon='11.73620023121' />
  <node id='-1840' action='modify' visible='true' lat='48.35054218582' lon='11.73595002252' />
  <node id='-1839' action='modify' visible='true' lat='48.35054791546' lon='11.73569999726' />
  <node id='-1838' action='modify' visible='true' lat='48.35055361121' lon='11.73530575145' />
  <node id='-1836' action='modify' visible='true' lat='48.35071044269' lon='11.7388780226' />
  <node id='-1835' action='modify' visible='true' lat='48.35056501539' lon='11.73493680696' />
  <node id='-1822' action='modify' visible='true' lat='48.35070064368' lon='11.73871844197' />
  <node id='-1821' action='modify' visible='true' lat='48.35066357964' lon='11.73827227005' />
  <node id='-1820' action='modify' visible='true' lat='48.35060944412' lon='11.7374619631' />
  <node id='-1819' action='modify' visible='true' lat='48.3505752698' lon='11.73683631484' />
  <node id='-1818' action='modify' visible='true' lat='48.35055812168' lon='11.73650947318' />
  <node id='-1817' action='modify' visible='true' lat='48.3505524091' lon='11.73620002092' />
  <node id='-1816' action='modify' visible='true' lat='48.35054668007' lon='11.73595002252' />
  <node id='-1815' action='modify' visible='true' lat='48.35055240536' lon='11.73570018718' />
  <node id='-1814' action='modify' visible='true' lat='48.35055810052' lon='11.73530598194' />
  <node id='-1812' action='modify' visible='true' lat='48.35071489379' lon='11.7388771175' />
  <node id='-1811' action='modify' visible='true' lat='48.35056950212' lon='11.73493712098' />
  <node id='-1809' action='modify' visible='true' lat='48.35075050264' lon='11.73886987671' />
  <node id='-1807' action='modify' visible='true' lat='48.35073627651' lon='11.73871146819' />
  <node id='-1805' action='modify' visible='true' lat='48.35069928855' lon='11.73826621184' />
  <node id='-1803' action='modify' visible='true' lat='48.35064522918' lon='11.73745704403' />
  <node id='-1801' action='modify' visible='true' lat='48.3506110864' lon='11.73683197261' />
  <node id='-1799' action='modify' visible='true' lat='48.35059401499' lon='11.73650659296' />
  <node id='-1797' action='modify' visible='true' lat='48.35058832452' lon='11.73619833856' />
  <node id='-1795' action='modify' visible='true' lat='48.35058263405' lon='11.73595002252' />
  <node id='-1793' action='modify' visible='true' lat='48.35058832452' lon='11.73570170647' />
  <node id='-1791' action='modify' visible='true' lat='48.35059401499' lon='11.73530782585' />
  <node id='-1790' action='modify' visible='true' lat='48.35060539593' lon='11.73493963309' />
  <way id='-1923' action='modify' visible='true'>
    <nd ref='-1901' />
    <nd ref='-1902' />
    <nd ref='-1903' />
    <nd ref='-1904' />
    <nd ref='-1894' />
  </way>
  <way id='-1921' action='modify' visible='true'>
    <nd ref='-1876' />
    <nd ref='-1877' />
    <nd ref='-1878' />
    <nd ref='-1879' />
    <nd ref='-1869' />
  </way>
  <way id='-1919' action='modify' visible='true'>
    <nd ref='-1856' />
    <nd ref='-1857' />
    <nd ref='-1858' />
    <nd ref='-1859' />
    <nd ref='-1849' />
  </way>
  <way id='-1917' action='modify' visible='true'>
    <nd ref='-1843' />
    <nd ref='-1844' />
    <nd ref='-1845' />
    <nd ref='-1846' />
    <nd ref='-1836' />
  </way>
  <way id='-1915' action='modify' visible='true'>
    <nd ref='-1819' />
    <nd ref='-1820' />
    <nd ref='-1821' />
    <nd ref='-1822' />
    <nd ref='-1812' />
  </way>
  <way id='-1913' action='modify' visible='true'>
    <nd ref='-1801' />
    <nd ref='-1803' />
    <nd ref='-1805' />
    <nd ref='-1807' />
    <nd ref='-1809' />
  </way>
  <way id='-1895' action='modify' visible='true'>
    <nd ref='-1893' />
    <nd ref='-1896' />
    <nd ref='-1897' />
    <nd ref='-1898' />
    <nd ref='-1899' />
    <nd ref='-1900' />
    <nd ref='-1901' />
  </way>
  <way id='-1870' action='modify' visible='true'>
    <nd ref='-1868' />
    <nd ref='-1871' />
    <nd ref='-1872' />
    <nd ref='-1873' />
    <nd ref='-1874' />
    <nd ref='-1875' />
    <nd ref='-1876' />
  </way>
  <way id='-1850' action='modify' visible='true'>
    <nd ref='-1848' />
    <nd ref='-1851' />
    <nd ref='-1852' />
    <nd ref='-1853' />
    <nd ref='-1854' />
    <nd ref='-1855' />
    <nd ref='-1856' />
  </way>
  <way id='-1837' action='modify' visible='true'>
    <nd ref='-1835' />
    <nd ref='-1838' />
    <nd ref='-1839' />
    <nd ref='-1840' />
    <nd ref='-1841' />
    <nd ref='-1842' />
    <nd ref='-1843' />
  </way>
  <way id='-1813' action='modify' visible='true'>
    <nd ref='-1811' />
    <nd ref='-1814' />
    <nd ref='-1815' />
    <nd ref='-1816' />
    <nd ref='-1817' />
    <nd ref='-1818' />
    <nd ref='-1819' />
  </way>
  <way id='-1792' action='modify' visible='true'>
    <nd ref='-1790' />
    <nd ref='-1791' />
    <nd ref='-1793' />
    <nd ref='-1795' />
    <nd ref='-1797' />
    <nd ref='-1799' />
    <nd ref='-1801' />
  </way>
  <relation id='-2993' action='modify' visible='true'>
    <member type='way' ref='-1913' role='left' />
    <member type='way' ref='-1915' role='right' />
    <tag k='type' v='lanelet' />
  </relation>
  <relation id='-1945' action='modify' visible='true'>
    <member type='way' ref='-1837' role='left' />
    <member type='way' ref='-1850' role='right' />
    <tag k='type' v='lanelet' />
  </relation>
  <relation id='-1936' action='modify' visible='true'>
    <member type='way' ref='-1919' role='right' />
    <member type='way' ref='-1917' role='left' />
    <tag k='type' v='lanelet' />
  </relation>
  <relation id='-1932' action='modify' visible='true'>
    <member type='way' ref='-1923' role='right' />
    <member type='way' ref='-1921' role='left' />
    <tag k='type' v='lanelet' />
  </relation>
  <relation id='-1928' action='modify' visible='true'>
    <member type='way' ref='-1870' role='left' />
    <member type='way' ref='-1895' role='right' />
    <tag k='type' v='lanelet' />
  </relation>
</osm>
